Data Science mit R – Daten transformieren mit {dplyr}
…
Spalten auswählen

select(starwars, name, mass)

# A tibble: 87 × 2
   name                mass
   <chr>              <dbl>
 1 Luke Skywalker        77
 2 C-3PO                 75
 3 R2-D2                 32
 4 Darth Vader          136
 5 Leia Organa           49
 6 Owen Lars            120
 7 Beru Whitesun Lars    75
 8 R5-D4                 32
 9 Biggs Darklighter     84
10 Obi-Wan Kenobi        77
# ℹ 77 more rows

Spalten auswählen

select(starwars, -height)

# A tibble: 87 × 13
   name   mass hair_color skin_color eye_color birth_year sex   gender homeworld
   <chr> <dbl> <chr>      <chr>      <chr>          <dbl> <chr> <chr>  <chr>    
 1 Luke…    77 blond      fair       blue            19   male  mascu… Tatooine 
 2 C-3PO    75 <NA>       gold       yellow         112   none  mascu… Tatooine 
 3 R2-D2    32 <NA>       white, bl… red             33   none  mascu… Naboo    
 4 Dart…   136 none       white      yellow          41.9 male  mascu… Tatooine 
 5 Leia…    49 brown      light      brown           19   fema… femin… Alderaan 
 6 Owen…   120 brown, gr… light      blue            52   male  mascu… Tatooine 
 7 Beru…    75 brown      light      blue            47   fema… femin… Tatooine 
 8 R5-D4    32 <NA>       white, red red             NA   none  mascu… Tatooine 
 9 Bigg…    84 black      light      brown           24   male  mascu… Tatooine 
10 Obi-…    77 auburn, w… fair       blue-gray       57   male  mascu… Stewjon  
# ℹ 77 more rows
# ℹ 4 more variables: species <chr>, films <list>, vehicles <list>,
#   starships <list>

Spalten auswählen

select(starwars, name:mass)

# A tibble: 87 × 3
   name               height  mass
   <chr>               <int> <dbl>
 1 Luke Skywalker        172    77
 2 C-3PO                 167    75
 3 R2-D2                  96    32
 4 Darth Vader           202   136
 5 Leia Organa           150    49
 6 Owen Lars             178   120
 7 Beru Whitesun Lars    165    75
 8 R5-D4                  97    32
 9 Biggs Darklighter     183    84
10 Obi-Wan Kenobi        182    77
# ℹ 77 more rows

Spalten auswählen

select(starwars, starts_with("h"))

# A tibble: 87 × 3
   height hair_color    homeworld
    <int> <chr>         <chr>    
 1    172 blond         Tatooine 
 2    167 <NA>          Tatooine 
 3     96 <NA>          Naboo    
 4    202 none          Tatooine 
 5    150 brown         Alderaan 
 6    178 brown, grey   Tatooine 
 7    165 brown         Tatooine 
 8     97 <NA>          Tatooine 
 9    183 black         Tatooine 
10    182 auburn, white Stewjon  
# ℹ 77 more rows

Spalten auswählen

select(starwars, ends_with("color"))

# A tibble: 87 × 3
   hair_color    skin_color  eye_color
   <chr>         <chr>       <chr>    
 1 blond         fair        blue     
 2 <NA>          gold        yellow   
 3 <NA>          white, blue red      
 4 none          white       yellow   
 5 brown         light       brown    
 6 brown, grey   light       blue     
 7 brown         light       blue     
 8 <NA>          white, red  red      
 9 black         light       brown    
10 auburn, white fair        blue-gray
# ℹ 77 more rows
…
Eine Spalte verschieben

starwars

# A tibble: 87 × 14
   name     height  mass hair_color skin_color eye_color birth_year sex   gender
   <chr>     <int> <dbl> <chr>      <chr>      <chr>          <dbl> <chr> <chr> 
 1 Luke Sk…    172    77 blond      fair       blue            19   male  mascu…
 2 C-3PO       167    75 <NA>       gold       yellow         112   none  mascu…
 3 R2-D2        96    32 <NA>       white, bl… red             33   none  mascu…
 4 Darth V…    202   136 none       white      yellow          41.9 male  mascu…
 5 Leia Or…    150    49 brown      light      brown           19   fema… femin…
 6 Owen La…    178   120 brown, gr… light      blue            52   male  mascu…
 7 Beru Wh…    165    75 brown      light      blue            47   fema… femin…
 8 R5-D4        97    32 <NA>       white, red red             NA   none  mascu…
 9 Biggs D…    183    84 black      light      brown           24   male  mascu…
10 Obi-Wan…    182    77 auburn, w… fair       blue-gray       57   male  mascu…
# ℹ 77 more rows
# ℹ 5 more variables: homeworld <chr>, species <chr>, films <list>,
#   vehicles <list>, starships <list>

relocate(starwars, mass)

# A tibble: 87 × 14
    mass name     height hair_color skin_color eye_color birth_year sex   gender
   <dbl> <chr>     <int> <chr>      <chr>      <chr>          <dbl> <chr> <chr> 
 1    77 Luke Sk…    172 blond      fair       blue            19   male  mascu…
 2    75 C-3PO       167 <NA>       gold       yellow         112   none  mascu…
 3    32 R2-D2        96 <NA>       white, bl… red             33   none  mascu…
 4   136 Darth V…    202 none       white      yellow          41.9 male  mascu…
 5    49 Leia Or…    150 brown      light      brown           19   fema… femin…
 6   120 Owen La…    178 brown, gr… light      blue            52   male  mascu…
 7    75 Beru Wh…    165 brown      light      blue            47   fema… femin…
 8    32 R5-D4        97 <NA>       white, red red             NA   none  mascu…
 9    84 Biggs D…    183 black      light      brown           24   male  mascu…
10    77 Obi-Wan…    182 auburn, w… fair       blue-gray       57   male  mascu…
# ℹ 77 more rows
# ℹ 5 more variables: homeworld <chr>, species <chr>, films <list>,
#   vehicles <list>, starships <list>

Eine Spalte verschieben

relocate(starwars, mass, .before = height)

# A tibble: 87 × 14
   name      mass height hair_color skin_color eye_color birth_year sex   gender
   <chr>    <dbl>  <int> <chr>      <chr>      <chr>          <dbl> <chr> <chr> 
 1 Luke Sk…    77    172 blond      fair       blue            19   male  mascu…
 2 C-3PO       75    167 <NA>       gold       yellow         112   none  mascu…
 3 R2-D2       32     96 <NA>       white, bl… red             33   none  mascu…
 4 Darth V…   136    202 none       white      yellow          41.9 male  mascu…
 5 Leia Or…    49    150 brown      light      brown           19   fema… femin…
 6 Owen La…   120    178 brown, gr… light      blue            52   male  mascu…
 7 Beru Wh…    75    165 brown      light      blue            47   fema… femin…
 8 R5-D4       32     97 <NA>       white, red red             NA   none  mascu…
 9 Biggs D…    84    183 black      light      brown           24   male  mascu…
10 Obi-Wan…    77    182 auburn, w… fair       blue-gray       57   male  mascu…
# ℹ 77 more rows
# ℹ 5 more variables: homeworld <chr>, species <chr>, films <list>,
#   vehicles <list>, starships <list>
…
Eine Spalte umbenennen

rename(starwars, gewicht = mass)

# A tibble: 87 × 14
   name   height gewicht hair_color skin_color eye_color birth_year sex   gender
   <chr>   <int>   <dbl> <chr>      <chr>      <chr>          <dbl> <chr> <chr> 
 1 Luke …    172      77 blond      fair       blue            19   male  mascu…
 2 C-3PO     167      75 <NA>       gold       yellow         112   none  mascu…
 3 R2-D2      96      32 <NA>       white, bl… red             33   none  mascu…
 4 Darth…    202     136 none       white      yellow          41.9 male  mascu…
 5 Leia …    150      49 brown      light      brown           19   fema… femin…
 6 Owen …    178     120 brown, gr… light      blue            52   male  mascu…
 7 Beru …    165      75 brown      light      blue            47   fema… femin…
 8 R5-D4      97      32 <NA>       white, red red             NA   none  mascu…
 9 Biggs…    183      84 black      light      brown           24   male  mascu…
10 Obi-W…    182      77 auburn, w… fair       blue-gray       57   male  mascu…
# ℹ 77 more rows
# ℹ 5 more variables: homeworld <chr>, species <chr>, films <list>,
#   vehicles <list>, starships <list>
…
Eine neue Spalte erstellen

mutate(starwars, height_m = height / 100)

# A tibble: 87 × 15
   name     height  mass hair_color skin_color eye_color birth_year sex   gender
   <chr>     <int> <dbl> <chr>      <chr>      <chr>          <dbl> <chr> <chr> 
 1 Luke Sk…    172    77 blond      fair       blue            19   male  mascu…
 2 C-3PO       167    75 <NA>       gold       yellow         112   none  mascu…
 3 R2-D2        96    32 <NA>       white, bl… red             33   none  mascu…
 4 Darth V…    202   136 none       white      yellow          41.9 male  mascu…
 5 Leia Or…    150    49 brown      light      brown           19   fema… femin…
 6 Owen La…    178   120 brown, gr… light      blue            52   male  mascu…
 7 Beru Wh…    165    75 brown      light      blue            47   fema… femin…
 8 R5-D4        97    32 <NA>       white, red red             NA   none  mascu…
 9 Biggs D…    183    84 black      light      brown           24   male  mascu…
10 Obi-Wan…    182    77 auburn, w… fair       blue-gray       57   male  mascu…
# ℹ 77 more rows
# ℹ 6 more variables: homeworld <chr>, species <chr>, films <list>,
#   vehicles <list>, starships <list>, height_m <dbl>

Eine neue Spalte erstellen

mutate(
  starwars,
  height_m = height / 100,
  .after = height
)

# A tibble: 87 × 15
   name   height height_m  mass hair_color skin_color eye_color birth_year sex  
   <chr>   <int>    <dbl> <dbl> <chr>      <chr>      <chr>          <dbl> <chr>
 1 Luke …    172     1.72    77 blond      fair       blue            19   male 
 2 C-3PO     167     1.67    75 <NA>       gold       yellow         112   none 
 3 R2-D2      96     0.96    32 <NA>       white, bl… red             33   none 
 4 Darth…    202     2.02   136 none       white      yellow          41.9 male 
 5 Leia …    150     1.5     49 brown      light      brown           19   fema…
 6 Owen …    178     1.78   120 brown, gr… light      blue            52   male 
 7 Beru …    165     1.65    75 brown      light      blue            47   fema…
 8 R5-D4      97     0.97    32 <NA>       white, red red             NA   none 
 9 Biggs…    183     1.83    84 black      light      brown           24   male 
10 Obi-W…    182     1.82    77 auburn, w… fair       blue-gray       57   male 
# ℹ 77 more rows
# ℹ 6 more variables: gender <chr>, homeworld <chr>, species <chr>,
#   films <list>, vehicles <list>, starships <list>

Mehrere Spalten erstellen

mutate(
  starwars,
  height_m = height / 100,
  bmi = mass / height_m^2,
  .after = mass
)

# A tibble: 87 × 16
   name   height  mass height_m   bmi hair_color skin_color eye_color birth_year
   <chr>   <int> <dbl>    <dbl> <dbl> <chr>      <chr>      <chr>          <dbl>
 1 Luke …    172    77     1.72  26.0 blond      fair       blue            19  
 2 C-3PO     167    75     1.67  26.9 <NA>       gold       yellow         112  
 3 R2-D2      96    32     0.96  34.7 <NA>       white, bl… red             33  
 4 Darth…    202   136     2.02  33.3 none       white      yellow          41.9
 5 Leia …    150    49     1.5   21.8 brown      light      brown           19  
 6 Owen …    178   120     1.78  37.9 brown, gr… light      blue            52  
 7 Beru …    165    75     1.65  27.5 brown      light      blue            47  
 8 R5-D4      97    32     0.97  34.0 <NA>       white, red red             NA  
 9 Biggs…    183    84     1.83  25.1 black      light      brown           24  
10 Obi-W…    182    77     1.82  23.2 auburn, w… fair       blue-gray       57  
# ℹ 77 more rows
# ℹ 7 more variables: sex <chr>, gender <chr>, homeworld <chr>, species <chr>,
#   films <list>, vehicles <list>, starships <list>
…
Wir haben bereits gesehen, wie man die pipe mit einfachen {dplyr}-Funktionen verwendet. Aber ihre Stärke kommt voll zur Geltung, wenn wir mehrere Funktionen mit demselben dataframe kombinieren wollen.

The Pipe |>

filter: mass < 300

mutate: height_m, bmi

select: name, species, sex, bmi

arrange: desc(bmi)

arrange(select(mutate(filter(starwars, mass < 300), height_m = height / 100, bmi = mass / height_m^2), name, species, sex, bmi), desc(bmi))

# A tibble: 58 × 4
   name             species        sex     bmi
   <chr>            <chr>          <chr> <dbl>
 1 Dud Bolt         Vulptereen     male   50.9
 2 Yoda             Yoda's species male   39.0
 3 Owen Lars        Human          male   37.9
 4 IG-88            Droid          none   35  
 5 R2-D2            Droid          none   34.7
 6 Grievous         Kaleesh        male   34.1
 7 R5-D4            Droid          none   34.0
 8 Jek Tono Porkins <NA>           <NA>   34.0
 9 Darth Vader      Human          male   33.3
10 Sebulba          Dug            male   31.9
# ℹ 48 more rows
…
Daten gruppieren

penguins |>
  group_by(species)

# A tibble: 344 × 8
# Groups:   species [3]
   species island    bill_length_mm bill_depth_mm flipper_length_mm body_mass_g
   <fct>   <fct>              <dbl>         <dbl>             <int>       <int>
 1 Adelie  Torgersen           39.1          18.7               181        3750
 2 Adelie  Torgersen           39.5          17.4               186        3800
 3 Adelie  Torgersen           40.3          18                 195        3250
 4 Adelie  Torgersen           NA            NA                  NA          NA
 5 Adelie  Torgersen           36.7          19.3               193        3450
 6 Adelie  Torgersen           39.3          20.6               190        3650
 7 Adelie  Torgersen           38.9          17.8               181        3625
 8 Adelie  Torgersen           39.2          19.6               195        4675
 9 Adelie  Torgersen           34.1          18.1               193        3475
10 Adelie  Torgersen           42            20.2               190        4250
# ℹ 334 more rows
# ℹ 2 more variables: sex <fct>, year <int>
…
