Data Science mit R – Daten importieren, exportieren, zusammenfügen und pivotieren
…
wetter |> 
  filter(Globalstrahlung in W/m2 > 111)

Error in parse(text = input): <text>:2:26: unexpected 'in'
1: wetter |> 
2:   filter(Globalstrahlung in
                            ^

Variablen-Namen - Backticks `

wetter |> 
  filter(`Globalstrahlung in W/m2` > 111)

# A tibble: 8,013 × 12
   Datum       Jahr `Globalstrahlung in W/m2` Gesamtschneemenge Gesamtbewölkung
   <date>     <dbl>                     <dbl>             <dbl>           <dbl>
 1 2001-02-15  2001                       113                 0              17
 2 2001-02-19  2001                       117                 0              42
 3 2001-02-26  2001                       113                 0              13
 4 2001-02-27  2001                       118                 0              88
 5 2001-03-24  2001                       122                 0              88
 6 2001-03-25  2001                       112                 0              92
 7 2001-04-02  2001                       218                 0              83
 8 2001-04-05  2001                       188                 0              50
 9 2001-04-13  2001                       203                 0              63
10 2001-04-14  2001                       160                 0              79
# ℹ 8,003 more rows
# ℹ 7 more variables: `Luftdruck in hPa` <dbl>, Niederschlag <dbl>,
#   Sonnenscheindauer <dbl>, `Tagesmittel Lufttemperatur` <dbl>,
#   `Tagesminimum Lufttemperatur` <dbl>, `Tagesmaximum Lufttemperatur` <dbl>,
#   `Relative Luftfeuchtigkeit` <dbl>
…
