Data Science mit R – Daten transformieren mit {dplyr}
…
{dplyr}-Befehl: filter()

Erstes Argument: data frame

Zweites Argument: Zeilenbedingung

Zeilen filtern

filter(
  abstimmung, 
  name == "Oberwil (BL)"
)

# A tibble: 369 × 21
   date       entity_id name   district vote_id domain type  title_de_CH counted
   <date>         <dbl> <chr>  <chr>    <chr>   <chr>  <chr> <chr>       <lgl>  
 1 2017-05-21      2771 Oberw… Arleshe… 201705… feder… prop… Energieges… TRUE   
 2 2017-05-21      2771 Oberw… Arleshe… 201705… canton prop… Formuliert… TRUE   
 3 2017-05-21      2771 Oberw… Arleshe… 201705… canton prop… Nicht form… TRUE   
 4 2017-05-21      2771 Oberw… Arleshe… 201705… canton prop… Änderung d… TRUE   
 5 2017-05-21      2771 Oberw… Arleshe… 201705… canton prop… Änderung d… TRUE   
 6 2017-02-12      2771 Oberw… Arleshe… 201702… feder… prop… Bundesbesc… TRUE   
 7 2017-02-12      2771 Oberw… Arleshe… 201702… feder… prop… Bundesbesc… TRUE   
 8 2017-02-12      2771 Oberw… Arleshe… 201702… feder… prop… Bundesgese… TRUE   
 9 2016-11-27      2771 Oberw… Arleshe… 201611… feder… prop… Volksiniti… TRUE   
10 2016-11-27      2771 Oberw… Arleshe… 201611… canton coun… Gegenvorsc… TRUE   
# ℹ 359 more rows
# ℹ 12 more variables: answer <chr>, percent_yeas <dbl>, percent_nays <dbl>,
#   percent_turnout <dbl>, eligible_voters <dbl>, expats <dbl>, empty <dbl>,
#   invalid <dbl>, yeas <dbl>, nays <dbl>, link_to_canton_results <chr>,
#   url_web <chr>
…
Reihenfolge der Zeilen ändern

arrange(abstimmung, date)

# A tibble: 31,734 × 21
   date       entity_id name   district vote_id domain type  title_de_CH counted
   <date>         <dbl> <chr>  <chr>    <chr>   <chr>  <chr> <chr>       <lgl>  
 1 2003-02-09      2761 Aesch… Arleshe… 200302… feder… prop… Volksrechte TRUE   
 2 2003-02-09      2761 Aesch… Arleshe… 200302… feder… prop… Kantonale … TRUE   
 3 2003-02-09      2762 Allsc… Arleshe… 200302… feder… prop… Volksrechte TRUE   
 4 2003-02-09      2762 Allsc… Arleshe… 200302… feder… prop… Kantonale … TRUE   
 5 2003-02-09      2763 Arles… Arleshe… 200302… feder… prop… Volksrechte TRUE   
 6 2003-02-09      2763 Arles… Arleshe… 200302… feder… prop… Kantonale … TRUE   
 7 2003-02-09      2764 Biel-… Arleshe… 200302… feder… prop… Volksrechte TRUE   
 8 2003-02-09      2764 Biel-… Arleshe… 200302… feder… prop… Kantonale … TRUE   
 9 2003-02-09      2765 Binni… Arleshe… 200302… feder… prop… Volksrechte TRUE   
10 2003-02-09      2765 Binni… Arleshe… 200302… feder… prop… Kantonale … TRUE   
# ℹ 31,724 more rows
# ℹ 12 more variables: answer <chr>, percent_yeas <dbl>, percent_nays <dbl>,
#   percent_turnout <dbl>, eligible_voters <dbl>, expats <dbl>, empty <dbl>,
#   invalid <dbl>, yeas <dbl>, nays <dbl>, link_to_canton_results <chr>,
#   url_web <chr>

Reihenfolge der Zeilen ändern

arrange(abstimmung, desc(date))

# A tibble: 31,734 × 21
   date       entity_id name   district vote_id domain type  title_de_CH counted
   <date>         <dbl> <chr>  <chr>    <chr>   <chr>  <chr> <chr>       <lgl>  
 1 2024-11-24      2761 Aesch… Arleshe… 202411… feder… prop… Bundesbesc… TRUE   
 2 2024-11-24      2761 Aesch… Arleshe… 202411… feder… prop… Änderung v… TRUE   
 3 2024-11-24      2761 Aesch… Arleshe… 202411… feder… prop… Änderung v… TRUE   
 4 2024-11-24      2761 Aesch… Arleshe… 202411… feder… prop… Änderung v… TRUE   
 5 2024-11-24      2762 Allsc… Arleshe… 202411… feder… prop… Bundesbesc… TRUE   
 6 2024-11-24      2762 Allsc… Arleshe… 202411… feder… prop… Änderung v… TRUE   
 7 2024-11-24      2762 Allsc… Arleshe… 202411… feder… prop… Änderung v… TRUE   
 8 2024-11-24      2762 Allsc… Arleshe… 202411… feder… prop… Änderung v… TRUE   
 9 2024-11-24      2763 Arles… Arleshe… 202411… feder… prop… Bundesbesc… TRUE   
10 2024-11-24      2763 Arles… Arleshe… 202411… feder… prop… Änderung v… TRUE   
# ℹ 31,724 more rows
# ℹ 12 more variables: answer <chr>, percent_yeas <dbl>, percent_nays <dbl>,
#   percent_turnout <dbl>, eligible_voters <dbl>, expats <dbl>, empty <dbl>,
#   invalid <dbl>, yeas <dbl>, nays <dbl>, link_to_canton_results <chr>,
#   url_web <chr>
…
