Praktikum 05d: if_else(), case_when(), fct_infreq() – Data Science mit R
…
starwars |> count(species)

# A tibble: 38 × 2
   species       n
   <chr>     <int>
 1 Aleena        1
 2 Besalisk      1
 3 Cerean        1
 4 Chagrian      1
 5 Clawdite      1
 6 Droid         6
 7 Dug           1
 8 Ewok          1
 9 Geonosian     1
10 Gungan        3
# ℹ 28 more rows
…
dplyr::if_else()

dplyr::case_when()

True/False: if_else()

Erstellt eine neue Spalte mit if_else(), die species_binary heisst, wobei species_binary = Other falls species != “Human”. Wie ist es mit NA? Hint: ?if_else. Speichert den resultierenden Dataframe in einem neuen Objekt df.

df <- starwars |>
  mutate(species_binary = if_else(species != "Human", "Other", species, missing = "Unknown"))

df |>
  count(species_binary, species)

# A tibble: 38 × 3
   species_binary species       n
   <chr>          <chr>     <int>
 1 Human          Human        35
 2 Other          Aleena        1
 3 Other          Besalisk      1
 4 Other          Cerean        1
 5 Other          Chagrian      1
 6 Other          Clawdite      1
 7 Other          Droid         6
 8 Other          Dug           1
 9 Other          Ewok          1
10 Other          Geonosian     1
# ℹ 28 more rows
…
non_sentient_animals <- c("Trandoshan", "Kaminoan", "Toydarian")

Erstellt eine Spalte (species_type) für den Typ der Kreaturen. Benutzt case_when() un %in% dafür:

df1 |>
  mutate(species_type = case_when(
    is.na(species) ~ "Unbekannt",
    species %in% sentient_humanoids ~ "sentient_humanoids",
    species %in% non_sentient_animals ~ "non_sentient_animals",
    .default = species
  )) |>
  count(species_type, species)

# A tibble: 38 × 3
   species_type         species        n
   <chr>                <chr>      <int>
 1 Droid                Droid          6
 2 Human                Human         35
 3 Unbekannt            <NA>           4
 4 non_sentient_animals Kaminoan       2
 5 non_sentient_animals Toydarian      1
 6 non_sentient_animals Trandoshan     1
 7 sentient_humanoids   Aleena         1
 8 sentient_humanoids   Besalisk       1
 9 sentient_humanoids   Cerean         1
10 sentient_humanoids   Chagrian       1
# ℹ 28 more rows
…
