Unit 3 - {dplyr} - Bechdel Test – Data Science mit R
…
relocate()

binary vor test schieben.

bechdel |>
  relocate(binary, .before = test)

# A tibble: 1,794 × 15
    year imdb      title  binary test  clean_test budget domgross intgross code 
   <int> <chr>     <chr>  <chr>  <chr> <ord>       <int>    <dbl>    <dbl> <chr>
 1  2013 tt1711425 21 & … FAIL   nota… notalk     1.3 e7 25682380   4.22e7 2013…
 2  2012 tt1343727 Dredd… PASS   ok-d… ok         4.50e7 13414714   4.09e7 2012…
 3  2013 tt2024544 12 Ye… FAIL   nota… notalk     2   e7 53107035   1.59e8 2013…
 4  2013 tt1272878 2 Guns FAIL   nota… notalk     6.1 e7 75612460   1.32e8 2013…
 5  2013 tt0453562 42     FAIL   men   men        4   e7 95020213   9.50e7 2013…
 6  2013 tt1335975 47 Ro… FAIL   men   men        2.25e8 38362475   1.46e8 2013…
 7  2013 tt1606378 A Goo… FAIL   nota… notalk     9.2 e7 67349198   3.04e8 2013…
 8  2013 tt2194499 About… PASS   ok-d… ok         1.20e7 15323921   8.73e7 2013…
 9  2013 tt1814621 Admis… PASS   ok    ok         1.3 e7 18007317   1.80e7 2013…
10  2013 tt1815862 After… FAIL   nota… notalk     1.3 e8 60522097   2.44e8 2013…
# ℹ 1,784 more rows
# ℹ 5 more variables: budget_2013 <int>, domgross_2013 <dbl>,
#   intgross_2013 <dbl>, period_code <int>, decade_code <int>

code an das Ende schieben. Hint: ?dplyr_tidy_select

bechdel |>
  relocate(code, .after = last_col())

# A tibble: 1,794 × 15
    year imdb      title        test  clean_test binary budget domgross intgross
   <int> <chr>     <chr>        <chr> <ord>      <chr>   <int>    <dbl>    <dbl>
 1  2013 tt1711425 21 & Over    nota… notalk     FAIL   1.3 e7 25682380   4.22e7
 2  2012 tt1343727 Dredd 3D     ok-d… ok         PASS   4.50e7 13414714   4.09e7
 3  2013 tt2024544 12 Years a … nota… notalk     FAIL   2   e7 53107035   1.59e8
 4  2013 tt1272878 2 Guns       nota… notalk     FAIL   6.1 e7 75612460   1.32e8
 5  2013 tt0453562 42           men   men        FAIL   4   e7 95020213   9.50e7
 6  2013 tt1335975 47 Ronin     men   men        FAIL   2.25e8 38362475   1.46e8
 7  2013 tt1606378 A Good Day … nota… notalk     FAIL   9.2 e7 67349198   3.04e8
 8  2013 tt2194499 About Time   ok-d… ok         PASS   1.20e7 15323921   8.73e7
 9  2013 tt1814621 Admission    ok    ok         PASS   1.3 e7 18007317   1.80e7
10  2013 tt1815862 After Earth  nota… notalk     FAIL   1.3 e8 60522097   2.44e8
# ℹ 1,784 more rows
# ℹ 6 more variables: budget_2013 <int>, domgross_2013 <dbl>,
#   intgross_2013 <dbl>, period_code <int>, decade_code <int>, code <chr>

select()

Überlegt euch so viele Möglichkeiten wie möglich, um budget, domgross, intgross, budget_2013, domgross_2013, intgross_2013 auszuwählen. Tipp: siehe select helpers.

bechdel |>
  select(budget, domgross, intgross, budget_2013, domgross_2013, intgross_2013)

# A tibble: 1,794 × 6
      budget domgross  intgross budget_2013 domgross_2013 intgross_2013
       <int>    <dbl>     <dbl>       <int>         <dbl>         <dbl>
 1  13000000 25682380  42195766    13000000      25682380      42195766
 2  45000000 13414714  40868994    45658735      13611086      41467257
 3  20000000 53107035 158607035    20000000      53107035     158607035
 4  61000000 75612460 132493015    61000000      75612460     132493015
 5  40000000 95020213  95020213    40000000      95020213      95020213
 6 225000000 38362475 145803842   225000000      38362475     145803842
 7  92000000 67349198 304249198    92000000      67349198     304249198
 8  12000000 15323921  87324746    12000000      15323921      87324746
 9  13000000 18007317  18007317    13000000      18007317      18007317
10 130000000 60522097 244373198   130000000      60522097     244373198
# ℹ 1,784 more rows

bechdel |>
  select(budget:intgross, budget_2013:intgross_2013)

# A tibble: 1,794 × 6
      budget domgross  intgross budget_2013 domgross_2013 intgross_2013
       <int>    <dbl>     <dbl>       <int>         <dbl>         <dbl>
 1  13000000 25682380  42195766    13000000      25682380      42195766
 2  45000000 13414714  40868994    45658735      13611086      41467257
 3  20000000 53107035 158607035    20000000      53107035     158607035
 4  61000000 75612460 132493015    61000000      75612460     132493015
 5  40000000 95020213  95020213    40000000      95020213      95020213
 6 225000000 38362475 145803842   225000000      38362475     145803842
 7  92000000 67349198 304249198    92000000      67349198     304249198
 8  12000000 15323921  87324746    12000000      15323921      87324746
 9  13000000 18007317  18007317    13000000      18007317      18007317
10 130000000 60522097 244373198   130000000      60522097     244373198
# ℹ 1,784 more rows

bechdel |>
  select(where(is.numeric), -c(year, ends_with("_code")))

# A tibble: 1,794 × 6
      budget domgross  intgross budget_2013 domgross_2013 intgross_2013
       <int>    <dbl>     <dbl>       <int>         <dbl>         <dbl>
 1  13000000 25682380  42195766    13000000      25682380      42195766
 2  45000000 13414714  40868994    45658735      13611086      41467257
 3  20000000 53107035 158607035    20000000      53107035     158607035
 4  61000000 75612460 132493015    61000000      75612460     132493015
 5  40000000 95020213  95020213    40000000      95020213      95020213
 6 225000000 38362475 145803842   225000000      38362475     145803842
 7  92000000 67349198 304249198    92000000      67349198     304249198
 8  12000000 15323921  87324746    12000000      15323921      87324746
 9  13000000 18007317  18007317    13000000      18007317      18007317
10 130000000 60522097 244373198   130000000      60522097     244373198
# ℹ 1,784 more rows

bechdel |>
  select(starts_with("budget"), contains("gross"))

# A tibble: 1,794 × 6
      budget budget_2013 domgross  intgross domgross_2013 intgross_2013
       <int>       <int>    <dbl>     <dbl>         <dbl>         <dbl>
 1  13000000    13000000 25682380  42195766      25682380      42195766
 2  45000000    45658735 13414714  40868994      13611086      41467257
 3  20000000    20000000 53107035 158607035      53107035     158607035
 4  61000000    61000000 75612460 132493015      75612460     132493015
 5  40000000    40000000 95020213  95020213      95020213      95020213
 6 225000000   225000000 38362475 145803842      38362475     145803842
 7  92000000    92000000 67349198 304249198      67349198     304249198
 8  12000000    12000000 15323921  87324746      15323921      87324746
 9  13000000    13000000 18007317  18007317      18007317      18007317
10 130000000   130000000 60522097 244373198      60522097     244373198
# ℹ 1,784 more rows

rename()

code mit bechdel_code umbenennen.

bechdel |>
  rename(bechdel_code = code)

# A tibble: 1,794 × 15
    year imdb      title        test  clean_test binary budget domgross intgross
   <int> <chr>     <chr>        <chr> <ord>      <chr>   <int>    <dbl>    <dbl>
 1  2013 tt1711425 21 & Over    nota… notalk     FAIL   1.3 e7 25682380   4.22e7
 2  2012 tt1343727 Dredd 3D     ok-d… ok         PASS   4.50e7 13414714   4.09e7
 3  2013 tt2024544 12 Years a … nota… notalk     FAIL   2   e7 53107035   1.59e8
 4  2013 tt1272878 2 Guns       nota… notalk     FAIL   6.1 e7 75612460   1.32e8
 5  2013 tt0453562 42           men   men        FAIL   4   e7 95020213   9.50e7
 6  2013 tt1335975 47 Ronin     men   men        FAIL   2.25e8 38362475   1.46e8
 7  2013 tt1606378 A Good Day … nota… notalk     FAIL   9.2 e7 67349198   3.04e8
 8  2013 tt2194499 About Time   ok-d… ok         PASS   1.20e7 15323921   8.73e7
 9  2013 tt1814621 Admission    ok    ok         PASS   1.3 e7 18007317   1.80e7
10  2013 tt1815862 After Earth  nota… notalk     FAIL   1.3 e8 60522097   2.44e8
# ℹ 1,784 more rows
# ℹ 6 more variables: bechdel_code <chr>, budget_2013 <int>,
#   domgross_2013 <dbl>, intgross_2013 <dbl>, period_code <int>,
#   decade_code <int>
…
