Prak03c: Gebäude und Energie Kanton BL – Data Science mit R
…
Wie viele verschiedene Gemeinden sind es (distinct oder count())?

gebaeude |> distinct(gemeindename)

# A tibble: 86 × 1
   gemeindename
   <chr>       
 1 Muttenz     
 2 Arlesheim   
 3 Wahlen      
 4 Münchenstein
 5 Giebenach   
 6 Tenniken    
 7 Therwil     
 8 Arisdorf    
 9 Ettingen    
10 Diegten     
# ℹ 76 more rows

gebaeude |> count(gemeindename)

# A tibble: 86 × 2
   gemeindename     n
   <chr>        <int>
 1 Aesch (BL)    1942
 2 Allschwil     3106
 3 Anwil          122
 4 Arboldswil     173
 5 Arisdorf       438
 6 Arlesheim     1710
 7 Augst          176
 8 Bennwil        146
 9 Biel-Benken   1022
10 Binningen     2541
# ℹ 76 more rows
…
