Praktikum 06a: CO2-Emissionen – Data Science mit R
…
Daten zusammenfassen count()

df |> count(erhebungsjahr)

# A tibble: 3 × 2
  erhebungsjahr     n
          <dbl> <int>
1          2018   150
2          2020   151
3          2022   126

df |> count(bfs_gemeindenummer)

# A tibble: 86 × 2
   bfs_gemeindenummer     n
                <dbl> <int>
 1               2761     6
 2               2762     6
 3               2763     9
 4               2764     5
 5               2765     6
 6               2766     8
 7               2767     6
 8               2768     9
 9               2769     6
10               2770    11
# ℹ 76 more rows

df_gem |> count(bfs_nummer, gemeinde, bezirk_nummer, bezirk)

# A tibble: 86 × 5
   bfs_nummer gemeinde     bezirk_nummer bezirk        n
        <dbl> <chr>                <dbl> <chr>     <int>
 1       2761 Aesch (BL)            1301 Arlesheim     1
 2       2762 Allschwil             1301 Arlesheim     1
 3       2763 Arlesheim             1301 Arlesheim     1
 4       2764 Biel-Benken           1301 Arlesheim     1
 5       2765 Binningen             1301 Arlesheim     1
 6       2766 Birsfelden            1301 Arlesheim     1
 7       2767 Bottmingen            1301 Arlesheim     1
 8       2768 Ettingen              1301 Arlesheim     1
 9       2769 Münchenstein          1301 Arlesheim     1
10       2770 Muttenz               1301 Arlesheim     1
# ℹ 76 more rows
…
