Prepare Companies Dataset – Data Science mit R
…
df |>
  mutate(jahr = year(journaldatum_handelsregister)) |>
  count(jahr, kategorie)

# A tibble: 84 × 3
    jahr kategorie                     n
   <dbl> <chr>                     <int>
 1  2016 Auflösung                   244
 2  2016 Auflösung infolge Konkurs   136
 3  2016 Fusion                       45
 4  2016 Löschung                    875
 5  2016 Löschung infolge Fusion      44
 6  2016 Neueintragung               937
 7  2016 Spaltung                      7
 8  2016 Widerruf der Auflösung      171
 9  2016 Wiedereintragung              5
10  2017 Auflösung                   251
# ℹ 74 more rows
…
