Unit 2: Hausuafgabe - dplyr – Data Science mit R
…
Behalte nur Zeilen, in denen die Beteiligungsquote (percent_turnout) und ja-Anteil (percent_yeas) 50 % oder mehr sind:

abstimmung_ueber50 <- filter(abstimmung, percent_turnout >= 50 & percent_yeas >= 50)
abstimmung_ueber50

# A tibble: 4,164 × 21
   date       entity_id name   district vote_id domain type  title_de_CH counted
   <date>         <dbl> <chr>  <chr>    <chr>   <chr>  <chr> <chr>       <lgl>  
 1 2017-05-21      2767 Bottm… Arleshe… 201705… canton prop… Änderung d… TRUE   
 2 2017-05-21      2788 Liesb… Laufen   201705… canton prop… Formuliert… TRUE   
 3 2017-05-21      2788 Liesb… Laufen   201705… canton prop… Änderung d… TRUE   
 4 2017-05-21      2833 Selti… Liestal  201705… feder… prop… Energieges… TRUE   
 5 2017-05-21      2833 Selti… Liestal  201705… canton prop… Änderung d… TRUE   
 6 2017-05-21      2851 Kilch… Sissach  201705… feder… prop… Energieges… TRUE   
 7 2017-05-21      2851 Kilch… Sissach  201705… canton prop… Änderung d… TRUE   
 8 2017-05-21      2860 Rünen… Sissach  201705… feder… prop… Energieges… TRUE   
 9 2017-05-21      2887 Lampe… Waldenb… 201705… feder… prop… Energieges… TRUE   
10 2017-05-21      2890 Liede… Waldenb… 201705… canton prop… Änderung d… TRUE   
# ℹ 4,154 more rows
# ℹ 12 more variables: answer <chr>, percent_yeas <dbl>, percent_nays <dbl>,
#   percent_turnout <dbl>, eligible_voters <dbl>, expats <dbl>, empty <dbl>,
#   invalid <dbl>, yeas <dbl>, nays <dbl>, link_to_canton_results <chr>,
#   url_web <chr>

Ordne das Ergebnis nach absteigendem ja-Anteil:

arrange(abstimmung_ueber50, desc(percent_yeas))

# A tibble: 4,164 × 21
   date       entity_id name   district vote_id domain type  title_de_CH counted
   <date>         <dbl> <chr>  <chr>    <chr>   <chr>  <chr> <chr>       <lgl>  
 1 2010-11-28      2774 Schön… Arleshe… 201011… canton prop… Landratsbe… TRUE   
 2 2010-11-28      2850 Käner… Sissach  201011… canton prop… Landratsbe… TRUE   
 3 2009-11-29      2890 Liede… Waldenb… 200911… canton prop… Beitritt d… TRUE   
 4 2010-11-28      2830 Lupsi… Liestal  201011… canton prop… Landratsbe… TRUE   
 5 2009-11-29      2867 Witti… Sissach  200911… canton prop… Beitritt d… TRUE   
 6 2010-11-28      2767 Bottm… Arleshe… 201011… canton prop… Landratsbe… TRUE   
 7 2010-11-28      2832 Ramli… Liestal  201011… canton prop… Landratsbe… TRUE   
 8 2010-11-28      2890 Liede… Waldenb… 201011… canton prop… Landratsbe… TRUE   
 9 2010-11-28      2882 Bennw… Waldenb… 201011… canton prop… Landratsbe… TRUE   
10 2010-11-28      2775 Therw… Arleshe… 201011… canton prop… Landratsbe… TRUE   
# ℹ 4,154 more rows
# ℹ 12 more variables: answer <chr>, percent_yeas <dbl>, percent_nays <dbl>,
#   percent_turnout <dbl>, eligible_voters <dbl>, expats <dbl>, empty <dbl>,
#   invalid <dbl>, yeas <dbl>, nays <dbl>, link_to_canton_results <chr>,
#   url_web <chr>
…
# A tibble: 4 × 2
  name           district
  <chr>          <chr>   
1 Kilchberg (BL) Sissach 
2 Oltingen       Sissach 
3 Wittinsburg    Sissach 
4 Frenkendorf    Liestal 

Behalte nur Zeilen, in denen expats vorhanden ist

filter(abstimmung, !is.na(expats))

# A tibble: 1,700 × 21
   date       entity_id name   district vote_id domain type  title_de_CH counted
   <date>         <dbl> <chr>  <chr>    <chr>   <chr>  <chr> <chr>       <lgl>  
 1 2024-11-24      2761 Aesch… Arleshe… 202411… feder… prop… Bundesbesc… TRUE   
 2 2024-11-24      2761 Aesch… Arleshe… 202411… feder… prop… Änderung v… TRUE   
 3 2024-11-24      2761 Aesch… Arleshe… 202411… feder… prop… Änderung v… TRUE   
 4 2024-11-24      2761 Aesch… Arleshe… 202411… feder… prop… Änderung v… TRUE   
 5 2024-11-24      2762 Allsc… Arleshe… 202411… feder… prop… Bundesbesc… TRUE   
 6 2024-11-24      2762 Allsc… Arleshe… 202411… feder… prop… Änderung v… TRUE   
 7 2024-11-24      2762 Allsc… Arleshe… 202411… feder… prop… Änderung v… TRUE   
 8 2024-11-24      2762 Allsc… Arleshe… 202411… feder… prop… Änderung v… TRUE   
 9 2024-11-24      2763 Arles… Arleshe… 202411… feder… prop… Bundesbesc… TRUE   
10 2024-11-24      2763 Arles… Arleshe… 202411… feder… prop… Änderung v… TRUE   
# ℹ 1,690 more rows
# ℹ 12 more variables: answer <chr>, percent_yeas <dbl>, percent_nays <dbl>,
#   percent_turnout <dbl>, eligible_voters <dbl>, expats <dbl>, empty <dbl>,
#   invalid <dbl>, yeas <dbl>, nays <dbl>, link_to_canton_results <chr>,
#   url_web <chr>
…
